{
	"iplugin": {
		"interfaces": [
			"IPlugin/1.0", "ICLIElement/1.0"
		],
		"references": {
			"IPluginLinker/1.0": 1
		},
		"info": {
			"name": "PluginLinkerCommand",
			"about": "Plugin linker CLI handler"
		}
	}
}
